﻿Variable / Field Name;Form Name;variable;Field Type;Field Label;Choices, Calculations, OR Slider Labels;Field Note;Text Validation Type OR Show Slider Number;Text Validation Min;Text Validation Max;Identifier?;Branching Logic (Show field only if...);Required Field?;Custom Alignment;Question Number (surveys only);Matrix Group Name;Matrix Ranking?;Field Annotation
sudy_id;id;STUDYID;text;SUBJECT STUDY ID: DD;;;;;;;;;;;;;
prescreen_dat;prescreening_date;SCPDT;text;Pre-Screening date;;;date_dmy;;;;;y;;;;;
prescreen_invest_init;prescreening_date;SCINTINV;text;Investigator initials;;;;;;;;y;;;;;
prescreen_dat_sign_icf;prescreening_date;SCDTICF;text;Date of signature of Informed consent (ICF);;;date_dmy;;;;;y;;;;;
dob;demography;DMSDTBIRTH;text;Date of birth;;;date_dmy;;;;;y;;;;;
age_calc;demography;DMAGE;calc;Age;rounddown(datediff([dob], [prescreen_dat_sign_icf], 'y'));;;;;;;;;;;;
age_manuel;demography;DMAGEM;text;Age;;;integer;;;;;;;;;;
gender;demography;DMSEX;radio;Gender;1, Male | 0, Female;;;;;;;y;;;;;
part_area;demography;DMRES;text;Participant area;;;;;;;;;;;;;
